{
	"process_id" : 3080,
	"version" : "2022.3.36f1",
	"app_path" : "C:/Program Files/Unity/Hub/Editor/2022.3.36f1-x86_64/Editor/Unity.exe",
	"app_contents_path" : "C:/Program Files/Unity/Hub/Editor/2022.3.36f1-x86_64/Editor/Data"
}