Library\Bee\artifacts\mvdfrm\UnityEditor.UI.ref.dll_4C98D3F7040CD4F5.mvfrm
Library\Bee\artifacts\mvdfrm\UnityEngine.UI.ref.dll_08FEAA520A2EFD60.mvfrm
Library\Bee\artifacts\mvdfrm\UnityEditor.CoreModule.dll_3531159290D9E980.mvfrm
Library\Bee\artifacts\mvdfrm\UnityEditor.DeviceSimulatorModule.dll_A0512A5C32861C41.mvfrm
Library\Bee\artifacts\mvdfrm\UnityEditor.DiagnosticsModule.dll_E084E00F3737D64F.mvfrm
Library\Bee\artifacts\mvdfrm\UnityEditor.dll_FDD47F46A0A68815.mvfrm
Library\Bee\artifacts\mvdfrm\UnityEditor.EditorToolbarModule.dll_1987C5737839CBF1.mvfrm
Library\Bee\artifacts\mvdfrm\UnityEditor.GraphViewModule.dll_EDF856FD1136C646.mvfrm
Library\Bee\artifacts\mvdfrm\UnityEditor.PresetsUIModule.dll_A95E8FDF138F1E4B.mvfrm
Library\Bee\artifacts\mvdfrm\UnityEditor.QuickSearchModule.dll_6B94611C900ED2A8.mvfrm
Library\Bee\artifacts\mvdfrm\UnityEditor.SceneTemplateModule.dll_3D27363177267629.mvfrm
Library\Bee\artifacts\mvdfrm\UnityEditor.SceneViewModule.dll_2CA83A0506599354.mvfrm
Library\Bee\artifacts\mvdfrm\UnityEditor.TextCoreFontEngineModule.dll_491E056036678AFE.mvfrm
Library\Bee\artifacts\mvdfrm\UnityEditor.TextCoreTextEngineModule.dll_91063BD1C5EB441C.mvfrm
Library\Bee\artifacts\mvdfrm\UnityEditor.UIBuilderModule.dll_4281041983EF3F7A.mvfrm
Library\Bee\artifacts\mvdfrm\UnityEditor.UIElementsModule.dll_3636F552ED1CC8BC.mvfrm
Library\Bee\artifacts\mvdfrm\UnityEditor.UIElementsSamplesModule.dll_B5DB3FD8B565B871.mvfrm
Library\Bee\artifacts\mvdfrm\UnityEditor.UnityConnectModule.dll_98BF3ADB59935836.mvfrm
Library\Bee\artifacts\mvdfrm\UnityEngine.AccessibilityModule.dll_6FCCA1C8779C9DC6.mvfrm
Library\Bee\artifacts\mvdfrm\UnityEngine.AIModule.dll_0DBBB0E38A4D87D4.mvfrm
Library\Bee\artifacts\mvdfrm\UnityEngine.AndroidJNIModule.dll_B47FDE26363C3792.mvfrm
Library\Bee\artifacts\mvdfrm\UnityEngine.AnimationModule.dll_BC7DD325EB939AEC.mvfrm
Library\Bee\artifacts\mvdfrm\UnityEngine.ARModule.dll_C72E75E6E76AE69D.mvfrm
Library\Bee\artifacts\mvdfrm\UnityEngine.AssetBundleModule.dll_AF7D940DF275879A.mvfrm
Library\Bee\artifacts\mvdfrm\UnityEngine.AudioModule.dll_31B46700AAFA60DE.mvfrm
Library\Bee\artifacts\mvdfrm\UnityEngine.ClothModule.dll_989CC3FB85173FC2.mvfrm
Library\Bee\artifacts\mvdfrm\UnityEngine.ClusterInputModule.dll_185BAFF10B1B2AFC.mvfrm
Library\Bee\artifacts\mvdfrm\UnityEngine.ClusterRendererModule.dll_A5FDECCDA24129C5.mvfrm
Library\Bee\artifacts\mvdfrm\UnityEngine.ContentLoadModule.dll_4893ED4EC0F82F87.mvfrm
Library\Bee\artifacts\mvdfrm\UnityEngine.CoreModule.dll_5851E8E538DF54AB.mvfrm
Library\Bee\artifacts\mvdfrm\UnityEngine.CrashReportingModule.dll_9C661D886E520123.mvfrm
Library\Bee\artifacts\mvdfrm\UnityEngine.DirectorModule.dll_3F4B4089C17DF588.mvfrm
Library\Bee\artifacts\mvdfrm\UnityEngine.dll_3078C61EFF1A14FA.mvfrm
Library\Bee\artifacts\mvdfrm\UnityEngine.DSPGraphModule.dll_449CA1F333DEC6A9.mvfrm
Library\Bee\artifacts\mvdfrm\UnityEngine.GameCenterModule.dll_DECD2840FC7D2883.mvfrm
Library\Bee\artifacts\mvdfrm\UnityEngine.GIModule.dll_A5F7F9F125FC6FEE.mvfrm
Library\Bee\artifacts\mvdfrm\UnityEngine.GridModule.dll_35C304D35133EAA2.mvfrm
Library\Bee\artifacts\mvdfrm\UnityEngine.HotReloadModule.dll_3DC6912BC6C6B66E.mvfrm
Library\Bee\artifacts\mvdfrm\UnityEngine.ImageConversionModule.dll_11EFEA7E2465E1B9.mvfrm
Library\Bee\artifacts\mvdfrm\UnityEngine.IMGUIModule.dll_6A140667712BF4BF.mvfrm
Library\Bee\artifacts\mvdfrm\UnityEngine.InputLegacyModule.dll_40C2AF2C8A673D8B.mvfrm
Library\Bee\artifacts\mvdfrm\UnityEngine.InputModule.dll_982A2EB121328582.mvfrm
Library\Bee\artifacts\mvdfrm\UnityEngine.JSONSerializeModule.dll_CFE42B0476D7FE50.mvfrm
Library\Bee\artifacts\mvdfrm\UnityEngine.LocalizationModule.dll_56A87A43A2971DF5.mvfrm
Library\Bee\artifacts\mvdfrm\UnityEngine.ParticleSystemModule.dll_EF7866D4DC638CB1.mvfrm
Library\Bee\artifacts\mvdfrm\UnityEngine.PerformanceReportingModule.dll_BE0EB1FDC8D0546A.mvfrm
Library\Bee\artifacts\mvdfrm\UnityEngine.Physics2DModule.dll_0923C3168C909281.mvfrm
Library\Bee\artifacts\mvdfrm\UnityEngine.PhysicsModule.dll_94D35F7BDD65F36F.mvfrm
Library\Bee\artifacts\mvdfrm\UnityEngine.ProfilerModule.dll_719179C05AD77C95.mvfrm
Library\Bee\artifacts\mvdfrm\UnityEngine.PropertiesModule.dll_0C08677F6F688CBF.mvfrm
Library\Bee\artifacts\mvdfrm\UnityEngine.RuntimeInitializeOnLoadManagerInitializerModule.dll_B79E0EC8B4E8854A.mvfrm
Library\Bee\artifacts\mvdfrm\UnityEngine.ScreenCaptureModule.dll_E9CBD8898B442AB2.mvfrm
Library\Bee\artifacts\mvdfrm\UnityEngine.SharedInternalsModule.dll_960129539B93DD09.mvfrm
Library\Bee\artifacts\mvdfrm\UnityEngine.SpriteMaskModule.dll_C7F99AD11DECBDFD.mvfrm
Library\Bee\artifacts\mvdfrm\UnityEngine.SpriteShapeModule.dll_C8DEC168A817BFA4.mvfrm
Library\Bee\artifacts\mvdfrm\UnityEngine.StreamingModule.dll_7112C0763B1B522A.mvfrm
Library\Bee\artifacts\mvdfrm\UnityEngine.SubstanceModule.dll_4DBDD4BF866E5038.mvfrm
Library\Bee\artifacts\mvdfrm\UnityEngine.SubsystemsModule.dll_32A70132EC34A610.mvfrm
Library\Bee\artifacts\mvdfrm\UnityEngine.TerrainModule.dll_AF19DAEAB3243C5D.mvfrm
Library\Bee\artifacts\mvdfrm\UnityEngine.TerrainPhysicsModule.dll_EFF30FA7F5A6873E.mvfrm
Library\Bee\artifacts\mvdfrm\UnityEngine.TextCoreFontEngineModule.dll_C77D80B3496549C9.mvfrm
Library\Bee\artifacts\mvdfrm\UnityEngine.TextCoreTextEngineModule.dll_0F65B724D8E902E7.mvfrm
Library\Bee\artifacts\mvdfrm\UnityEngine.TextRenderingModule.dll_130B4A94427BAAA7.mvfrm
Library\Bee\artifacts\mvdfrm\UnityEngine.TilemapModule.dll_4E16426BCAE11D66.mvfrm
Library\Bee\artifacts\mvdfrm\UnityEngine.TLSModule.dll_94A7B1D583CB5083.mvfrm
Library\Bee\artifacts\mvdfrm\UnityEngine.UIElementsModule.dll_36E5629AEF60E207.mvfrm
Library\Bee\artifacts\mvdfrm\UnityEngine.UIModule.dll_092F4F10E6948D80.mvfrm
Library\Bee\artifacts\mvdfrm\UnityEngine.UmbraModule.dll_AC89131938210C51.mvfrm
Library\Bee\artifacts\mvdfrm\UnityEngine.UnityAnalyticsCommonModule.dll_594D6F41E2B8F2C8.mvfrm
Library\Bee\artifacts\mvdfrm\UnityEngine.UnityAnalyticsModule.dll_0F17D79E888ADEAD.mvfrm
Library\Bee\artifacts\mvdfrm\UnityEngine.UnityConnectModule.dll_861EBEEA541B58E1.mvfrm
Library\Bee\artifacts\mvdfrm\UnityEngine.UnityCurlModule.dll_EF9A74575BA78CD9.mvfrm
Library\Bee\artifacts\mvdfrm\UnityEngine.UnityTestProtocolModule.dll_719DF5CB0F610DC7.mvfrm
Library\Bee\artifacts\mvdfrm\UnityEngine.UnityWebRequestAssetBundleModule.dll_8B4B4BC9BCCABB3E.mvfrm
Library\Bee\artifacts\mvdfrm\UnityEngine.UnityWebRequestAudioModule.dll_360B05DC4F3B1F02.mvfrm
Library\Bee\artifacts\mvdfrm\UnityEngine.UnityWebRequestModule.dll_238EF2282F5A7C38.mvfrm
Library\Bee\artifacts\mvdfrm\UnityEngine.UnityWebRequestTextureModule.dll_69A17EF1C07A8917.mvfrm
Library\Bee\artifacts\mvdfrm\UnityEngine.UnityWebRequestWWWModule.dll_DA27FC80C8A8BF53.mvfrm
Library\Bee\artifacts\mvdfrm\UnityEngine.VehiclesModule.dll_B70E3A093BA7C523.mvfrm
Library\Bee\artifacts\mvdfrm\UnityEngine.VFXModule.dll_15864A445A38B9F0.mvfrm
Library\Bee\artifacts\mvdfrm\UnityEngine.VideoModule.dll_56BDEB6B6D8C7C83.mvfrm
Library\Bee\artifacts\mvdfrm\UnityEngine.VirtualTexturingModule.dll_3D18492F23792789.mvfrm
Library\Bee\artifacts\mvdfrm\UnityEngine.VRModule.dll_5C017596884F12F8.mvfrm
Library\Bee\artifacts\mvdfrm\UnityEngine.WindModule.dll_CEA0C40DCA15D314.mvfrm
Library\Bee\artifacts\mvdfrm\UnityEngine.XRModule.dll_8EC0389B11896056.mvfrm